[
    {"description": "access to documents",
     "from": "slot/:id",
     "to": "../../:id"},
    {"description": "return all slot infos for a given day",
     "from": "day/:day",
     "to": "_view/byDay",
     "query": {"key": ":day", "include_docs": "true"}}
]
